{
  "annotations": {
    "list": [
      {
        "builtIn": 1,
        "datasource": "-- Grafana --",
        "enable": true,
        "hide": true,
        "iconColor": "rgba(0, 211, 255, 1)",
        "name": "Annotations & Alerts",
        "type": "dashboard"
      }
    ]
  },
  "editable": true,
  "gnetId": null,
  "graphTooltip": 0,
  "iteration": 1642347368830,
  "links": [],
  "panels": [
    {
      "circleMaxSize": "3",
      "circleMinSize": "2",
      "colors": [
        "#AD0317",
        "#FF780A",
        "#E0B400",
        "#FFEE52",
        "#19730E",
        "rgb(45, 230, 24)"
      ],
      "datasource": "lorawanflux",
      "decimals": 0,
      "description": "",
      "esMetric": "Count",
      "fieldConfig": {
        "defaults": {
          "custom": {}
        },
        "overrides": []
      },
      "gridPos": {
        "h": 18,
        "w": 19,
        "x": 0,
        "y": 0
      },
      "hideEmpty": false,
      "hideZero": false,
      "id": 2,
      "initialZoom": "15",
      "interval": "1",
      "locationData": "table",
      "mapCenter": "custom",
      "mapCenterLatitude": "50.91749572753906",
      "mapCenterLongitude": "14.071660041809082",
      "maxDataPoints": 300,
      "mouseWheelZoom": false,
      "pluginVersion": "7.5.6",
      "showLegend": true,
      "stickyLabels": true,
      "tableQueryOptions": {
        "geohashField": "geohash",
        "labelField": "Signal",
        "latitudeField": "object_latitude",
        "longitudeField": "object_longitude",
        "metricField": "rxInfo_0_loRaSNR",
        "queryType": "coordinates"
      },
      "targets": [
        {
          "groupBy": [
            {
              "params": [
                "$__interval"
              ],
              "type": "time"
            },
            {
              "params": [
                "null"
              ],
              "type": "fill"
            }
          ],
          "orderByTime": "ASC",
          "policy": "default",
          "query": "from(bucket: \"lorawanbucket\")\n  |> range(start: v.timeRangeStart, stop: v.timeRangeStop)\n  |> filter(fn: (r) => r[\"_measurement\"] == \"mqtt_consumer\")\n  |> filter(fn: (r) => r[\"topic\"] =~ /${device}/)\n  |> filter(fn: (r) =>  r[\"_field\"] == \"object_latitude\" or r[\"_field\"] == \"object_longitude\" or r[\"_field\"] == \"rxInfo_0_loRaSNR\" )\n  |> pivot(rowKey:[\"_time\"], columnKey: [\"_field\"], valueColumn: \"_value\")",
          "refId": "A",
          "resultFormat": "time_series",
          "select": [
            [
              {
                "params": [
                  "value"
                ],
                "type": "field"
              },
              {
                "params": [],
                "type": "mean"
              }
            ]
          ],
          "tags": []
        }
      ],
      "thresholds": "-20,-10,-5,5,10",
      "timeFrom": null,
      "timeShift": null,
      "title": "GPS-Tracker",
      "transformations": [],
      "type": "grafana-worldmap-panel",
      "unitPlural": "",
      "unitSingle": "",
      "unitSingular": "",
      "valueName": "current"
    }
  ],
  "refresh": "5s",
  "schemaVersion": 27,
  "style": "dark",
  "tags": [],
  "templating": {
    "list": [
      {
        "allValue": null,
        "current": {
          "selected": false,
          "text": "33424324ede23432",
          "value": "33424324ede23432"
        },
        "datasource": "lorawanflux",
        "definition": "from(bucket: \"lorawanbucket\")\n  |> range(start: -60m, stop:  now())\n  |> filter(fn: (r) => r[\"_measurement\"] == \"mqtt_consumer\")\n  |> keep(columns: [\"topic\"])\n |> group()\n ",
        "description": null,
        "error": null,
        "hide": 0,
        "includeAll": false,
        "label": null,
        "multi": false,
        "name": "device",
        "options": [],
        "query": "from(bucket: \"lorawanbucket\")\n  |> range(start: -60m, stop:  now())\n  |> filter(fn: (r) => r[\"_measurement\"] == \"mqtt_consumer\")\n  |> keep(columns: [\"topic\"])\n |> group()\n ",
        "refresh": 1,
        "regex": "/.*device/([^]*)(.*)*/event([^]*).*/",
        "skipUrlSync": false,
        "sort": 0,
        "tagValuesQuery": "",
        "tags": [],
        "tagsQuery": "",
        "type": "query",
        "useTags": false
      }
    ]
  },
  "time": {
    "from": "now-30m",
    "to": "now"
  },
  "timepicker": {},
  "timezone": "",
  "title": "GPS-Tracker",
  "uid": "s09xkp17k",
  "version": 2
}
