{
  "annotations": {
    "list": [
      {
        "builtIn": 1,
        "datasource": "-- Grafana --",
        "enable": true,
        "hide": true,
        "iconColor": "rgba(0, 211, 255, 1)",
        "name": "Annotations & Alerts",
        "target": {
          "limit": 100,
          "matchAny": false,
          "tags": [],
          "type": "dashboard"
        },
        "type": "dashboard"
      }
    ]
  },
  "editable": true,
  "fiscalYearStartMonth": 0,
  "graphTooltip": 0,
  "id": 5,
  "links": [],
  "liveNow": false,
  "panels": [
    {
      "datasource": {
        "type": "influxdb",
        "uid": "P0C5AF3FE80B57091"
      },
      "description": "",
      "fieldConfig": {
        "defaults": {
          "color": {
            "mode": "continuous-RdYlGr"
          },
          "mappings": [],
          "max": 10,
          "min": -20,
          "thresholds": {
            "mode": "absolute",
            "steps": [
              {
                "color": "rgba(245, 54, 54, 0.9)",
                "value": null
              },
              {
                "color": "rgba(237, 129, 40, 0.89)",
                "value": -15
              },
              {
                "color": "dark-yellow",
                "value": -5
              },
              {
                "color": "super-light-yellow",
                "value": 5
              },
              {
                "color": "dark-green",
                "value": 10
              }
            ]
          },
          "unit": "none"
        },
        "overrides": []
      },
      "gridPos": {
        "h": 20,
        "w": 16,
        "x": 0,
        "y": 0
      },
      "id": 2,
      "options": {
        "basemap": {
          "config": {},
          "name": "Basemap",
          "type": "default"
        },
        "controls": {
          "mouseWheelZoom": false,
          "showAttribution": true,
          "showDebug": false,
          "showScale": false,
          "showZoom": true
        },
        "layers": [
          {
            "config": {
              "showLegend": true,
              "style": {
                "color": {
                  "field": "rxInfo_0_loRaSNR",
                  "fixed": "dark-green"
                },
                "opacity": 0.6,
                "rotation": {
                  "fixed": 8,
                  "max": 360,
                  "min": -360,
                  "mode": "mod"
                },
                "size": {
                  "field": "rxInfo_0_loRaSNR",
                  "fixed": 11,
                  "max": 9,
                  "min": 6
                },
                "symbol": {
                  "fixed": "img/icons/marker/circle.svg",
                  "mode": "fixed"
                },
                "text": {
                  "field": "rxInfo_0_loRaSNR",
                  "fixed": "",
                  "mode": "field"
                },
                "textConfig": {
                  "fontSize": 12,
                  "offsetX": 15,
                  "offsetY": 10,
                  "textAlign": "left",
                  "textBaseline": "bottom"
                }
              }
            },
            "location": {
              "latitude": "object_latitude",
              "longitude": "object_longitude",
              "mode": "coords"
            },
            "name": "markers",
            "type": "markers"
          },
          {
            "config": {
              "blur": 41,
              "radius": 15,
              "weight": {
                "fixed": 0.5,
                "max": 1,
                "min": 0
              }
            },
            "location": {
              "latitude": "object_latitude",
              "longitude": "object_longitude",
              "mode": "auto"
            },
            "name": "Layer 2",
            "type": "heatmap"
          }
        ],
        "view": {
          "id": "coords",
          "lat": 50.917496,
          "lon": 14.07166,
          "shared": false,
          "zoom": 15
        }
      },
      "pluginVersion": "8.3.0",
      "targets": [
        {
          "datasource": {
            "type": "influxdb",
            "uid": "P0C5AF3FE80B57091"
          },
          "query": "from(bucket: \"lorawanbucket\")\n  |> range(start: v.timeRangeStart, stop: v.timeRangeStop)\n  |> filter(fn: (r) => r[\"_measurement\"] == \"mqtt_consumer\")\n  |> filter(fn: (r) => r[\"topic\"] =~ /33424324ede23432/)\n  |> filter(fn: (r) =>  r[\"_field\"] == \"object_latitude\" or r[\"_field\"] == \"object_longitude\" or r[\"_field\"] == \"rxInfo_0_loRaSNR\" )\n  |> pivot(rowKey:[\"_time\"], columnKey: [\"_field\"], valueColumn: \"_value\")",
          "refId": "A"
        }
      ],
      "title": "Geomap",
      "type": "geomap"
    }
  ],
  "refresh": false,
  "schemaVersion": 33,
  "style": "dark",
  "tags": [],
  "templating": {
    "list": []
  },
  "time": {
    "from": "2022-01-14T10:00:00.000Z",
    "to": "2022-01-14T14:00:00.000Z"
  },
  "timepicker": {},
  "timezone": "",
  "title": "Geomap",
  "uid": "MdedLf1nz",
  "version": 3,
  "weekStart": ""
}