{
  "annotations": {
    "list": [
      {
        "builtIn": 1,
        "datasource": "-- Grafana --",
        "enable": true,
        "hide": true,
        "iconColor": "rgba(0, 211, 255, 1)",
        "name": "Annotations & Alerts",
        "type": "dashboard"
      }
    ]
  },
  "editable": true,
  "gnetId": null,
  "graphTooltip": 0,
  "iteration": 1641751829811,
  "links": [],
  "panels": [
    {
      "datasource": "lorawanflux",
      "fieldConfig": {
        "defaults": {
          "color": {
            "mode": "thresholds"
          },
          "custom": {},
          "displayName": "Spannung",
          "mappings": [],
          "max": 10000,
          "thresholds": {
            "mode": "absolute",
            "steps": [
              {
                "color": "green",
                "value": null
              },
              {
                "color": "red",
                "value": 0
              },
              {
                "color": "#EAB839",
                "value": 2000
              },
              {
                "color": "green",
                "value": 5000
              }
            ]
          }
        },
        "overrides": []
      },
      "gridPos": {
        "h": 6,
        "w": 9,
        "x": 0,
        "y": 0
      },
      "id": 13,
      "options": {
        "reduceOptions": {
          "calcs": [
            "lastNotNull"
          ],
          "fields": "",
          "values": false
        },
        "showThresholdLabels": false,
        "showThresholdMarkers": true,
        "text": {}
      },
      "pluginVersion": "7.4.5",
      "targets": [
        {
          "groupBy": [
            {
              "params": [
                "$__interval"
              ],
              "type": "time"
            },
            {
              "params": [
                "null"
              ],
              "type": "fill"
            }
          ],
          "orderByTime": "ASC",
          "policy": "default",
          "query": "from(bucket: \"lorawanbucket\")\n  |> range(start: v.timeRangeStart, stop: v.timeRangeStop)\n  |> filter(fn: (r) => r[\"_measurement\"] == \"mqtt_consumer\")\n  |> filter(fn: (r) => r[\"topic\"] =~ /${device}/)\n  |> filter(fn: (r) =>  r[\"_field\"] == \"object_fence_voltage\" )\n  |> pivot(rowKey:[\"_time\"], columnKey: [\"_field\"], valueColumn: \"_value\")",
          "queryType": "randomWalk",
          "refId": "A",
          "resultFormat": "time_series",
          "select": [
            [
              {
                "params": [
                  "value"
                ],
                "type": "field"
              },
              {
                "params": [],
                "type": "mean"
              }
            ]
          ],
          "tags": []
        }
      ],
      "timeFrom": null,
      "timeShift": null,
      "title": "Weidezaunspannung",
      "type": "gauge"
    },
    {
      "datasource": "lorawanflux",
      "fieldConfig": {
        "defaults": {
          "color": {
            "fixedColor": "green",
            "mode": "fixed"
          },
          "custom": {},
          "mappings": [],
          "max": 1,
          "min": 0,
          "thresholds": {
            "mode": "absolute",
            "steps": []
          },
          "unit": "none"
        },
        "overrides": []
      },
      "gridPos": {
        "h": 4,
        "w": 5,
        "x": 0,
        "y": 6
      },
      "id": 19,
      "options": {
        "displayMode": "gradient",
        "orientation": "auto",
        "reduceOptions": {
          "calcs": [
            "last"
          ],
          "fields": "",
          "values": false
        },
        "showUnfilled": true,
        "text": {
          "titleSize": 0,
          "valueSize": 0
        }
      },
      "pluginVersion": "7.4.5",
      "targets": [
        {
          "groupBy": [
            {
              "params": [
                "$__interval"
              ],
              "type": "time"
            },
            {
              "params": [
                "null"
              ],
              "type": "fill"
            }
          ],
          "orderByTime": "ASC",
          "policy": "default",
          "query": "from(bucket: \"lorawanbucket\")\n  |> range(start: v.timeRangeStart, stop: v.timeRangeStop)\n  |> filter(fn: (r) => r[\"_measurement\"] == \"mqtt_consumer\")\n  |> filter(fn: (r) => r[\"topic\"] =~ /${device}/)\n  |> filter(fn: (r) =>  r[\"_field\"] == \"object_status\" )\n  |> pivot(rowKey:[\"_time\"], columnKey: [\"_field\"], valueColumn: \"_value\")",
          "queryType": "randomWalk",
          "refId": "A",
          "resultFormat": "time_series",
          "select": [
            [
              {
                "params": [
                  "value"
                ],
                "type": "field"
              },
              {
                "params": [],
                "type": "mean"
              }
            ]
          ],
          "tags": []
        }
      ],
      "timeFrom": null,
      "timeShift": null,
      "title": "Status",
      "type": "bargauge"
    },
    {
      "datasource": "lorawanflux",
      "fieldConfig": {
        "defaults": {
          "color": {
            "mode": "continuous-RdYlGr"
          },
          "custom": {},
          "mappings": [
            {
              "from": "",
              "id": 1,
              "text": "",
              "to": "",
              "type": 1
            }
          ],
          "max": 13,
          "min": 11,
          "thresholds": {
            "mode": "absolute",
            "steps": [
              {
                "color": "red",
                "value": null
              },
              {
                "color": "dark-red",
                "value": 30
              },
              {
                "color": "yellow",
                "value": 50
              },
              {
                "color": "dark-green",
                "value": 60
              }
            ]
          }
        },
        "overrides": [
          {
            "matcher": {
              "id": "byName",
              "options": "object_voltage"
            },
            "properties": [
              {
                "id": "displayName",
                "value": "Spannung"
              },
              {
                "id": "unit",
                "value": "volt"
              }
            ]
          },
          {
            "matcher": {
              "id": "byName",
              "options": "object_impulse"
            },
            "properties": [
              {
                "id": "displayName",
                "value": "Impuls"
              },
              {
                "id": "unit",
                "value": "none"
              }
            ]
          }
        ]
      },
      "gridPos": {
        "h": 3,
        "w": 4,
        "x": 5,
        "y": 6
      },
      "id": 8,
      "options": {
        "displayMode": "gradient",
        "orientation": "auto",
        "reduceOptions": {
          "calcs": [
            "lastNotNull"
          ],
          "fields": "",
          "values": false
        },
        "showUnfilled": false,
        "text": {}
      },
      "pluginVersion": "7.4.5",
      "targets": [
        {
          "groupBy": [
            {
              "params": [
                "$__interval"
              ],
              "type": "time"
            },
            {
              "params": [
                "null"
              ],
              "type": "fill"
            }
          ],
          "orderByTime": "ASC",
          "policy": "default",
          "query": "from(bucket: \"lorawanbucket\")\n  |> range(start: v.timeRangeStart, stop: v.timeRangeStop)\n  |> filter(fn: (r) => r[\"_measurement\"] == \"mqtt_consumer\")\n  |> filter(fn: (r) => r[\"topic\"] =~ /${device}/)\n  |> filter(fn: (r) =>  r[\"_field\"] == \"object_voltage\" )\n  |> pivot(rowKey:[\"_time\"], columnKey: [\"_field\"], valueColumn: \"_value\")",
          "queryType": "randomWalk",
          "refId": "A",
          "resultFormat": "time_series",
          "select": [
            [
              {
                "params": [
                  "value"
                ],
                "type": "field"
              },
              {
                "params": [],
                "type": "mean"
              }
            ]
          ],
          "tags": []
        },
        {
          "groupBy": [
            {
              "params": [
                "$__interval"
              ],
              "type": "time"
            },
            {
              "params": [
                "null"
              ],
              "type": "fill"
            }
          ],
          "hide": false,
          "orderByTime": "ASC",
          "policy": "default",
          "refId": "C",
          "resultFormat": "time_series",
          "select": [
            [
              {
                "params": [
                  "value"
                ],
                "type": "field"
              },
              {
                "params": [],
                "type": "mean"
              }
            ]
          ],
          "tags": []
        }
      ],
      "timeFrom": null,
      "timeShift": null,
      "title": "Batterie",
      "type": "bargauge"
    },
    {
      "datasource": "lorawanflux",
      "fieldConfig": {
        "defaults": {
          "color": {
            "mode": "continuous-RdYlGr"
          },
          "custom": {},
          "mappings": [],
          "max": 35,
          "min": 10,
          "thresholds": {
            "mode": "absolute",
            "steps": [
              {
                "color": "purple",
                "value": null
              },
              {
                "color": "red",
                "value": 20
              },
              {
                "color": "yellow",
                "value": 40
              },
              {
                "color": "dark-green",
                "value": 60
              }
            ]
          }
        },
        "overrides": []
      },
      "gridPos": {
        "h": 4,
        "w": 4,
        "x": 5,
        "y": 9
      },
      "id": 17,
      "options": {
        "displayMode": "gradient",
        "orientation": "vertical",
        "reduceOptions": {
          "calcs": [
            "lastNotNull"
          ],
          "fields": "",
          "values": false
        },
        "showUnfilled": false,
        "text": {}
      },
      "pluginVersion": "7.4.5",
      "targets": [
        {
          "groupBy": [
            {
              "params": [
                "$__interval"
              ],
              "type": "time"
            },
            {
              "params": [
                "null"
              ],
              "type": "fill"
            }
          ],
          "orderByTime": "ASC",
          "policy": "default",
          "query": "from(bucket: \"lorawanbucket\")\n  |> range(start: v.timeRangeStart, stop: v.timeRangeStop)\n  |> filter(fn: (r) => r[\"_measurement\"] == \"mqtt_consumer\")\n  |> filter(fn: (r) => r[\"topic\"] =~ /${device}/)\n  |> filter(fn: (r) =>  r[\"_field\"] == \"object_impulse\" )\n  |> pivot(rowKey:[\"_time\"], columnKey: [\"_field\"], valueColumn: \"_value\")",
          "queryType": "randomWalk",
          "refId": "A",
          "resultFormat": "time_series",
          "select": [
            [
              {
                "params": [
                  "value"
                ],
                "type": "field"
              },
              {
                "params": [],
                "type": "mean"
              }
            ]
          ],
          "tags": []
        }
      ],
      "title": "Impuls",
      "type": "bargauge"
    },
    {
      "datasource": null,
      "fieldConfig": {
        "defaults": {
          "custom": {}
        },
        "overrides": []
      },
      "gridPos": {
        "h": 3,
        "w": 1,
        "x": 1,
        "y": 10
      },
      "id": 21,
      "mode": "Button",
      "model": {
        "maxValue": 100,
        "minValue": 0,
        "offValue": "false",
        "onValue": "true",
        "step": 1,
        "text": "An"
      },
      "mqttAuth": "None",
      "mqttPassword": "",
      "mqttProtocol": "ws",
      "mqttServer": "wwh.webseitekaufen.de",
      "mqttServerPort": 9001,
      "mqttTopicPublish": "application/1/device/${device}/command/down",
      "mqttTopicQuery": "",
      "mqttTopicSubscribe": "application/1/device/${device}/event/up",
      "mqttUser": "",
      "pluginVersion": "7.4.5",
      "targets": [
        {
          "queryType": "randomWalk",
          "refId": "A"
        }
      ],
      "timeFrom": null,
      "timeShift": null,
      "title": " ",
      "transparent": true,
      "type": "geeksrus-mqtt-panel",
      "value": "{\"confirmed\":true,\"fPort\": 2,\"data\":\"V+Ee\"}",
      "viewModel": {
        "maxValue": "100",
        "minValue": "0",
        "step": "1",
        "text": "An"
      }
    },
    {
      "datasource": null,
      "fieldConfig": {
        "defaults": {
          "custom": {}
        },
        "overrides": []
      },
      "gridPos": {
        "h": 3,
        "w": 1,
        "x": 3,
        "y": 10
      },
      "id": 23,
      "mode": "Button",
      "model": {
        "maxValue": 100,
        "minValue": 0,
        "offValue": "false",
        "onValue": "true",
        "step": 1,
        "text": "Aus"
      },
      "mqttAuth": "None",
      "mqttPassword": "",
      "mqttProtocol": "ws",
      "mqttServer": "wwh.webseitekaufen.de",
      "mqttServerPort": 9001,
      "mqttTopicPublish": "application/1/device/${device}/command/down",
      "mqttTopicQuery": "",
      "mqttTopicSubscribe": "application/1/device/${device}/event/up",
      "mqttUser": "",
      "pluginVersion": "7.4.5",
      "targets": [
        {
          "queryType": "randomWalk",
          "refId": "A"
        }
      ],
      "title": " ",
      "transparent": true,
      "type": "geeksrus-mqtt-panel",
      "value": "{\"confirmed\":true,\"fPort\": 2,\"data\":\"/wAA\"}",
      "viewModel": {
        "maxValue": "100",
        "minValue": "0",
        "step": "1",
        "text": "Aus"
      }
    },
    {
      "datasource": "lorawanflux",
      "description": "",
      "fieldConfig": {
        "defaults": {
          "color": {
            "mode": "thresholds"
          },
          "custom": {},
          "mappings": [],
          "thresholds": {
            "mode": "absolute",
            "steps": []
          },
          "unit": "none"
        },
        "overrides": [
          {
            "matcher": {
              "id": "byName",
              "options": "object_temperature"
            },
            "properties": [
              {
                "id": "unit",
                "value": "celsius"
              },
              {
                "id": "displayName",
                "value": "Temperatur"
              }
            ]
          },
          {
            "matcher": {
              "id": "byName",
              "options": "object_humidity"
            },
            "properties": [
              {
                "id": "unit",
                "value": "none"
              },
              {
                "id": "displayName",
                "value": "Feuchtigkeit"
              }
            ]
          }
        ]
      },
      "gridPos": {
        "h": 7,
        "w": 9,
        "x": 0,
        "y": 13
      },
      "id": 2,
      "options": {
        "colorMode": "value",
        "graphMode": "area",
        "justifyMode": "auto",
        "orientation": "auto",
        "reduceOptions": {
          "calcs": [
            "lastNotNull"
          ],
          "fields": "",
          "values": false
        },
        "text": {},
        "textMode": "auto"
      },
      "pluginVersion": "7.4.5",
      "targets": [
        {
          "groupBy": [
            {
              "params": [
                "$__interval"
              ],
              "type": "time"
            },
            {
              "params": [
                "null"
              ],
              "type": "fill"
            }
          ],
          "orderByTime": "ASC",
          "policy": "default",
          "query": "from(bucket: \"lorawanbucket\")\n  |> range(start: v.timeRangeStart, stop: v.timeRangeStop)\n  |> filter(fn: (r) => r[\"_measurement\"] == \"mqtt_consumer\")\n  |> filter(fn: (r) => r[\"topic\"] =~ /${device}/)\n  |> filter(fn: (r) =>  r[\"_field\"] == \"object_temperature\" )\n  |> pivot(rowKey:[\"_time\"], columnKey: [\"_field\"], valueColumn: \"_value\")",
          "queryType": "randomWalk",
          "refId": "A",
          "resultFormat": "time_series",
          "select": [
            [
              {
                "params": [
                  "value"
                ],
                "type": "field"
              },
              {
                "params": [],
                "type": "mean"
              }
            ]
          ],
          "tags": []
        },
        {
          "groupBy": [
            {
              "params": [
                "$__interval"
              ],
              "type": "time"
            },
            {
              "params": [
                "null"
              ],
              "type": "fill"
            }
          ],
          "hide": false,
          "orderByTime": "ASC",
          "policy": "default",
          "query": "from(bucket: \"lorawanbucket\")\n  |> range(start: v.timeRangeStart, stop: v.timeRangeStop)\n  |> filter(fn: (r) => r[\"_measurement\"] == \"mqtt_consumer\")\n  |> filter(fn: (r) => r[\"topic\"] =~ /${device}/)\n  |> filter(fn: (r) =>  r[\"_field\"] == \"object_humidity\" )\n  |> pivot(rowKey:[\"_time\"], columnKey: [\"_field\"], valueColumn: \"_value\")",
          "refId": "B",
          "resultFormat": "time_series",
          "select": [
            [
              {
                "params": [
                  "value"
                ],
                "type": "field"
              },
              {
                "params": [],
                "type": "mean"
              }
            ]
          ],
          "tags": []
        }
      ],
      "timeFrom": null,
      "timeShift": null,
      "title": "Wetterdaten",
      "transformations": [],
      "type": "stat"
    }
  ],
  "refresh": "5",
  "schemaVersion": 27,
  "style": "dark",
  "tags": [],
  "templating": {
    "list": [
      {
        "allValue": null,
        "current": {
          "selected": false,
          "text": "036b7539dd631e1b",
          "value": "036b7539dd631e1b"
        },
        "datasource": "lorawanflux",
        "definition": "from(bucket: \"lorawanbucket\")\n  |> range(start: -60m, stop:  now())\n  |> filter(fn: (r) => r[\"_measurement\"] == \"mqtt_consumer\")\n  |> keep(columns: [\"topic\"])\n   |> group()\n",
        "description": null,
        "error": null,
        "hide": 0,
        "includeAll": false,
        "label": null,
        "multi": false,
        "name": "device",
        "options": [],
        "query": "from(bucket: \"lorawanbucket\")\n  |> range(start: -60m, stop:  now())\n  |> filter(fn: (r) => r[\"_measurement\"] == \"mqtt_consumer\")\n  |> keep(columns: [\"topic\"])\n |> group()\n ",
        "refresh": 1,
        "regex": "/.*device/([^]*)(.*)*/event([^]*).*/",
        "skipUrlSync": false,
        "sort": 0,
        "tagValuesQuery": "",
        "tags": [],
        "tagsQuery": "",
        "type": "query",
        "useTags": false
      }
    ]
  },
  "time": {
    "from": "now-60m",
    "to": "now"
  },
  "timepicker": {},
  "timezone": "",
  "title": "WildWeideHüten-Mobil",
  "uid": "AtuJPgciu",
  "version": 1
}
