{
  "annotations": {
    "list": [
      {
        "builtIn": 1,
        "datasource": "-- Grafana --",
        "enable": true,
        "hide": true,
        "iconColor": "rgba(0, 211, 255, 1)",
        "name": "Annotations & Alerts",
        "type": "dashboard"
      }
    ]
  },
  "editable": true,
  "gnetId": null,
  "graphTooltip": 0,
  "iteration": 1642350049947,
  "links": [],
  "panels": [
    {
      "datasource": "lorawanflux",
      "fieldConfig": {
        "defaults": {
          "color": {
            "fixedColor": "green",
            "mode": "fixed"
          },
          "custom": {},
          "mappings": [],
          "max": 1,
          "min": 0,
          "thresholds": {
            "mode": "absolute",
            "steps": []
          },
          "unit": "none"
        },
        "overrides": []
      },
      "gridPos": {
        "h": 4,
        "w": 4,
        "x": 0,
        "y": 0
      },
      "id": 21,
      "options": {
        "displayMode": "gradient",
        "orientation": "auto",
        "reduceOptions": {
          "calcs": [
            "last"
          ],
          "fields": "",
          "values": false
        },
        "showUnfilled": true,
        "text": {
          "titleSize": 0,
          "valueSize": 0
        }
      },
      "pluginVersion": "7.4.5",
      "targets": [
        {
          "groupBy": [
            {
              "params": [
                "$__interval"
              ],
              "type": "time"
            },
            {
              "params": [
                "null"
              ],
              "type": "fill"
            }
          ],
          "orderByTime": "ASC",
          "policy": "default",
          "query": "from(bucket: \"lorawanbucket\")\n  |> range(start: v.timeRangeStart, stop: v.timeRangeStop)\n  |> filter(fn: (r) => r[\"_measurement\"] == \"mqtt_consumer\")\n  |> filter(fn: (r) => r[\"topic\"] =~ /${device}/)\n  |> filter(fn: (r) =>  r[\"_field\"] == \"object_status\" )\n  |> pivot(rowKey:[\"_time\"], columnKey: [\"_field\"], valueColumn: \"_value\")",
          "queryType": "randomWalk",
          "refId": "A",
          "resultFormat": "time_series",
          "select": [
            [
              {
                "params": [
                  "value"
                ],
                "type": "field"
              },
              {
                "params": [],
                "type": "mean"
              }
            ]
          ],
          "tags": []
        }
      ],
      "timeFrom": null,
      "timeShift": null,
      "title": "Status",
      "type": "bargauge"
    },
    {
      "datasource": null,
      "fieldConfig": {
        "defaults": {
          "custom": {}
        },
        "overrides": []
      },
      "gridPos": {
        "h": 3,
        "w": 1,
        "x": 4,
        "y": 0
      },
      "id": 17,
      "mode": "Button",
      "model": {
        "maxValue": 100,
        "minValue": 0,
        "offValue": "false",
        "onValue": "true",
        "step": 1,
        "text": "An"
      },
      "mqttAuth": "None",
      "mqttPassword": "",
      "mqttProtocol": "ws",
      "mqttServer": "wwh.webseitekaufen.de",
      "mqttServerPort": 9001,
      "mqttTopicPublish": "application/1/device/${device}/command/down",
      "mqttTopicQuery": "",
      "mqttTopicSubscribe": "application/1/device/${device}/event/up",
      "mqttUser": "",
      "pluginVersion": "7.4.5",
      "targets": [
        {
          "queryType": "randomWalk",
          "refId": "A"
        }
      ],
      "timeFrom": null,
      "timeShift": null,
      "title": " ",
      "transparent": true,
      "type": "geeksrus-mqtt-panel",
      "value": "{\"confirmed\":true,\"fPort\": 2,\"data\":\"V+Ee\"}",
      "viewModel": {
        "maxValue": "100",
        "minValue": "0",
        "step": "1",
        "text": "An"
      }
    },
    {
      "datasource": null,
      "fieldConfig": {
        "defaults": {
          "custom": {}
        },
        "overrides": []
      },
      "gridPos": {
        "h": 3,
        "w": 1,
        "x": 6,
        "y": 0
      },
      "id": 15,
      "mode": "Button",
      "model": {
        "maxValue": 100,
        "minValue": 0,
        "offValue": "false",
        "onValue": "true",
        "step": 1,
        "text": "Aus"
      },
      "mqttAuth": "None",
      "mqttPassword": "",
      "mqttProtocol": "ws",
      "mqttServer": "wwh.webseitekaufen.de",
      "mqttServerPort": 9001,
      "mqttTopicPublish": "application/1/device/${device}/command/down",
      "mqttTopicQuery": "",
      "mqttTopicSubscribe": "application/1/device/${device}/event/up",
      "mqttUser": "",
      "pluginVersion": "7.4.5",
      "targets": [
        {
          "queryType": "randomWalk",
          "refId": "A"
        }
      ],
      "title": " ",
      "transparent": true,
      "type": "geeksrus-mqtt-panel",
      "value": "{\"confirmed\":true,\"fPort\": 2,\"data\":\"/wAA\"}",
      "viewModel": {
        "maxValue": "100",
        "minValue": "0",
        "step": "1",
        "text": "Aus"
      }
    },
    {
      "circleMaxSize": "3",
      "circleMinSize": "2",
      "colors": [
        "#AD0317",
        "#FF780A",
        "#E0B400",
        "#FFEE52",
        "#19730E",
        "rgb(45, 230, 24)"
      ],
      "datasource": "lorawanflux",
      "decimals": 0,
      "esMetric": "Count",
      "fieldConfig": {
        "defaults": {
          "color": {},
          "custom": {},
          "thresholds": {
            "mode": "absolute",
            "steps": []
          }
        },
        "overrides": []
      },
      "gridPos": {
        "h": 8,
        "w": 8,
        "x": 7,
        "y": 0
      },
      "hideEmpty": false,
      "hideZero": false,
      "id": 10,
      "initialZoom": "15",
      "interval": "1",
      "locationData": "table",
      "mapCenter": "custom",
      "mapCenterLatitude": "50.91749572753906",
      "mapCenterLongitude": "14.071660041809082",
      "maxDataPoints": 300,
      "mouseWheelZoom": false,
      "pluginVersion": "7.4.5",
      "showLegend": true,
      "stickyLabels": true,
      "tableQueryOptions": {
        "geohashField": "geohash",
        "labelField": "Signal",
        "latitudeField": "object_latitude",
        "longitudeField": "object_longitude",
        "metricField": "rxInfo_0_loRaSNR",
        "queryType": "coordinates"
      },
      "targets": [
        {
          "groupBy": [
            {
              "params": [
                "$__interval"
              ],
              "type": "time"
            },
            {
              "params": [
                "null"
              ],
              "type": "fill"
            }
          ],
          "orderByTime": "ASC",
          "policy": "default",
          "query": "from(bucket: \"lorawanbucket\")\n  |> range(start: v.timeRangeStart, stop: v.timeRangeStop)\n  |> filter(fn: (r) => r[\"_measurement\"] == \"mqtt_consumer\")\n  |> filter(fn: (r) => r[\"topic\"] =~ /${device}/)\n  |> filter(fn: (r) =>  r[\"_field\"] == \"object_latitude\" or r[\"_field\"] == \"object_longitude\" or r[\"_field\"] == \"rxInfo_0_loRaSNR\")\n\n  |> pivot(rowKey:[\"_time\"], columnKey: [\"_field\"], valueColumn: \"_value\")\n  |> filter(fn: (r) => r.object_latitude != 0)",
          "refId": "A",
          "resultFormat": "time_series",
          "select": [
            [
              {
                "params": [
                  "value"
                ],
                "type": "field"
              },
              {
                "params": [],
                "type": "mean"
              }
            ]
          ],
          "tags": []
        }
      ],
      "thresholds": "-20,-10,-5,5,10",
      "timeFrom": null,
      "timeShift": null,
      "title": "Standort",
      "transformations": [],
      "type": "grafana-worldmap-panel",
      "unitPlural": "",
      "unitSingle": "",
      "unitSingular": "",
      "valueName": "current"
    },
    {
      "aliasColors": {},
      "bars": false,
      "dashLength": 10,
      "dashes": false,
      "datasource": "lorawanflux",
      "fieldConfig": {
        "defaults": {
          "custom": {},
          "displayName": "Spannung"
        },
        "overrides": [
          {
            "matcher": {
              "id": "byName",
              "options": "object_voltage"
            },
            "properties": [
              {
                "id": "displayName",
                "value": "Spannung"
              },
              {
                "id": "unit",
                "value": "volt"
              }
            ]
          },
          {
            "matcher": {
              "id": "byName",
              "options": "object_impulse"
            },
            "properties": [
              {
                "id": "displayName",
                "value": "Impuls"
              },
              {
                "id": "unit",
                "value": "none"
              }
            ]
          }
        ]
      },
      "fill": 1,
      "fillGradient": 0,
      "gridPos": {
        "h": 7,
        "w": 7,
        "x": 0,
        "y": 4
      },
      "hiddenSeries": false,
      "id": 8,
      "legend": {
        "avg": false,
        "current": false,
        "max": false,
        "min": false,
        "show": true,
        "total": false,
        "values": false
      },
      "lines": true,
      "linewidth": 1,
      "nullPointMode": "null",
      "options": {
        "alertThreshold": true
      },
      "percentage": false,
      "pluginVersion": "7.4.5",
      "pointradius": 2,
      "points": false,
      "renderer": "flot",
      "seriesOverrides": [],
      "spaceLength": 10,
      "stack": false,
      "steppedLine": false,
      "targets": [
        {
          "groupBy": [
            {
              "params": [
                "$__interval"
              ],
              "type": "time"
            },
            {
              "params": [
                "null"
              ],
              "type": "fill"
            }
          ],
          "orderByTime": "ASC",
          "policy": "default",
          "query": "from(bucket: \"lorawanbucket\")\n  |> range(start: v.timeRangeStart, stop: v.timeRangeStop)\n  |> filter(fn: (r) => r[\"_measurement\"] == \"mqtt_consumer\")\n  |> filter(fn: (r) => r[\"topic\"] =~ /${device}/)\n  |> filter(fn: (r) =>  r[\"_field\"] == \"object_voltage\" )\n  |> pivot(rowKey:[\"_time\"], columnKey: [\"_field\"], valueColumn: \"_value\")",
          "queryType": "randomWalk",
          "refId": "A",
          "resultFormat": "time_series",
          "select": [
            [
              {
                "params": [
                  "value"
                ],
                "type": "field"
              },
              {
                "params": [],
                "type": "mean"
              }
            ]
          ],
          "tags": []
        },
        {
          "groupBy": [
            {
              "params": [
                "$__interval"
              ],
              "type": "time"
            },
            {
              "params": [
                "null"
              ],
              "type": "fill"
            }
          ],
          "hide": false,
          "orderByTime": "ASC",
          "policy": "default",
          "query": "from(bucket: \"lorawanbucket\")\n  |> range(start: v.timeRangeStart, stop: v.timeRangeStop)\n  |> filter(fn: (r) => r[\"_measurement\"] == \"mqtt_consumer\")\n  |> filter(fn: (r) => r[\"topic\"] =~ /${device}/)\n  |> filter(fn: (r) =>  r[\"_field\"] == \"object_impulse\" )\n  |> pivot(rowKey:[\"_time\"], columnKey: [\"_field\"], valueColumn: \"_value\")",
          "refId": "B",
          "resultFormat": "time_series",
          "select": [
            [
              {
                "params": [
                  "value"
                ],
                "type": "field"
              },
              {
                "params": [],
                "type": "mean"
              }
            ]
          ],
          "tags": []
        },
        {
          "groupBy": [
            {
              "params": [
                "$__interval"
              ],
              "type": "time"
            },
            {
              "params": [
                "null"
              ],
              "type": "fill"
            }
          ],
          "hide": false,
          "orderByTime": "ASC",
          "policy": "default",
          "refId": "C",
          "resultFormat": "time_series",
          "select": [
            [
              {
                "params": [
                  "value"
                ],
                "type": "field"
              },
              {
                "params": [],
                "type": "mean"
              }
            ]
          ],
          "tags": []
        }
      ],
      "thresholds": [],
      "timeFrom": null,
      "timeRegions": [],
      "timeShift": null,
      "title": "Batterie",
      "tooltip": {
        "shared": true,
        "sort": 0,
        "value_type": "individual"
      },
      "type": "graph",
      "xaxis": {
        "buckets": null,
        "mode": "time",
        "name": null,
        "show": true,
        "values": []
      },
      "yaxes": [
        {
          "$$hashKey": "object:53",
          "format": "none",
          "label": "Spannung",
          "logBase": 1,
          "max": null,
          "min": null,
          "show": true
        },
        {
          "$$hashKey": "object:54",
          "decimals": null,
          "format": "none",
          "label": "Impuls",
          "logBase": 1,
          "max": null,
          "min": null,
          "show": true
        }
      ],
      "yaxis": {
        "align": true,
        "alignLevel": null
      }
    },
    {
      "alert": {
        "alertRuleTags": {},
        "conditions": [
          {
            "evaluator": {
              "params": [
                1000
              ],
              "type": "lt"
            },
            "operator": {
              "type": "and"
            },
            "query": {
              "params": [
                "A",
                "5m",
                "now"
              ]
            },
            "reducer": {
              "params": [],
              "type": "avg"
            },
            "type": "query"
          }
        ],
        "executionErrorState": "alerting",
        "for": "2m",
        "frequency": "1m",
        "handler": 1,
        "message": "test",
        "name": "Alert_fence_voltage",
        "noDataState": "no_data",
        "notifications": [
          {
            "uid": "notifier1"
          }
        ]
      },
      "aliasColors": {},
      "bars": false,
      "dashLength": 10,
      "dashes": false,
      "datasource": "lorawanflux",
      "fieldConfig": {
        "defaults": {
          "custom": {},
          "displayName": "Spannung"
        },
        "overrides": []
      },
      "fill": 1,
      "fillGradient": 0,
      "gridPos": {
        "h": 6,
        "w": 15,
        "x": 0,
        "y": 11
      },
      "hiddenSeries": false,
      "id": 13,
      "legend": {
        "avg": false,
        "current": false,
        "max": false,
        "min": false,
        "show": true,
        "total": false,
        "values": false
      },
      "lines": true,
      "linewidth": 1,
      "nullPointMode": "null",
      "options": {
        "alertThreshold": true
      },
      "percentage": false,
      "pluginVersion": "7.4.5",
      "pointradius": 2,
      "points": false,
      "renderer": "flot",
      "seriesOverrides": [],
      "spaceLength": 10,
      "stack": false,
      "steppedLine": false,
      "targets": [
        {
          "groupBy": [
            {
              "params": [
                "$__interval"
              ],
              "type": "time"
            },
            {
              "params": [
                "null"
              ],
              "type": "fill"
            }
          ],
          "orderByTime": "ASC",
          "policy": "default",
          "query": "from(bucket: \"lorawanbucket\")\n  |> range(start: v.timeRangeStart, stop: v.timeRangeStop)\n  |> filter(fn: (r) => r[\"_measurement\"] == \"mqtt_consumer\")\n  |> filter(fn: (r) => r[\"topic\"] =~ /${device}/)\n  |> filter(fn: (r) =>  r[\"_field\"] == \"object_fence_voltage\" )\n  |> pivot(rowKey:[\"_time\"], columnKey: [\"_field\"], valueColumn: \"_value\")",
          "queryType": "randomWalk",
          "refId": "A",
          "resultFormat": "time_series",
          "select": [
            [
              {
                "params": [
                  "value"
                ],
                "type": "field"
              },
              {
                "params": [],
                "type": "mean"
              }
            ]
          ],
          "tags": []
        }
      ],
      "thresholds": [
        {
          "colorMode": "critical",
          "fill": true,
          "line": true,
          "op": "lt",
          "value": 1000,
          "visible": true
        }
      ],
      "timeFrom": null,
      "timeRegions": [],
      "timeShift": null,
      "title": "Weidezaunspannung",
      "tooltip": {
        "shared": true,
        "sort": 0,
        "value_type": "individual"
      },
      "type": "graph",
      "xaxis": {
        "buckets": null,
        "mode": "time",
        "name": null,
        "show": true,
        "values": []
      },
      "yaxes": [
        {
          "$$hashKey": "object:53",
          "format": "volt",
          "label": "Spannung",
          "logBase": 1,
          "max": null,
          "min": null,
          "show": true
        },
        {
          "$$hashKey": "object:54",
          "format": "short",
          "label": "",
          "logBase": 1,
          "max": null,
          "min": null,
          "show": true
        }
      ],
      "yaxis": {
        "align": false,
        "alignLevel": null
      }
    },
    {
      "aliasColors": {},
      "bars": false,
      "dashLength": 10,
      "dashes": false,
      "datasource": "lorawanflux",
      "description": "",
      "fieldConfig": {
        "defaults": {
          "color": {},
          "custom": {},
          "thresholds": {
            "mode": "absolute",
            "steps": []
          },
          "unit": "none"
        },
        "overrides": [
          {
            "matcher": {
              "id": "byName",
              "options": "object_temperature"
            },
            "properties": [
              {
                "id": "unit",
                "value": "celsius"
              },
              {
                "id": "displayName",
                "value": "Temperatur"
              }
            ]
          },
          {
            "matcher": {
              "id": "byName",
              "options": "object_humidity"
            },
            "properties": [
              {
                "id": "unit",
                "value": "none"
              },
              {
                "id": "displayName",
                "value": "Feuchtigkeit"
              }
            ]
          }
        ]
      },
      "fill": 1,
      "fillGradient": 0,
      "gridPos": {
        "h": 8,
        "w": 15,
        "x": 0,
        "y": 17
      },
      "hiddenSeries": false,
      "id": 2,
      "legend": {
        "alignAsTable": false,
        "avg": false,
        "current": false,
        "hideEmpty": false,
        "hideZero": false,
        "max": false,
        "min": false,
        "rightSide": false,
        "show": true,
        "total": false,
        "values": false
      },
      "lines": true,
      "linewidth": 1,
      "nullPointMode": "null",
      "options": {
        "alertThreshold": true
      },
      "percentage": false,
      "pluginVersion": "7.4.5",
      "pointradius": 2,
      "points": false,
      "renderer": "flot",
      "seriesOverrides": [],
      "spaceLength": 10,
      "stack": false,
      "steppedLine": false,
      "targets": [
        {
          "groupBy": [
            {
              "params": [
                "$__interval"
              ],
              "type": "time"
            },
            {
              "params": [
                "null"
              ],
              "type": "fill"
            }
          ],
          "orderByTime": "ASC",
          "policy": "default",
          "query": "from(bucket: \"lorawanbucket\")\n  |> range(start: v.timeRangeStart, stop: v.timeRangeStop)\n  |> filter(fn: (r) => r[\"_measurement\"] == \"mqtt_consumer\")\n  |> filter(fn: (r) => r[\"topic\"] =~ /${device}/)\n  |> filter(fn: (r) =>  r[\"_field\"] == \"object_temperature\" )\n  |> pivot(rowKey:[\"_time\"], columnKey: [\"_field\"], valueColumn: \"_value\")",
          "queryType": "randomWalk",
          "refId": "A",
          "resultFormat": "time_series",
          "select": [
            [
              {
                "params": [
                  "value"
                ],
                "type": "field"
              },
              {
                "params": [],
                "type": "mean"
              }
            ]
          ],
          "tags": []
        },
        {
          "groupBy": [
            {
              "params": [
                "$__interval"
              ],
              "type": "time"
            },
            {
              "params": [
                "null"
              ],
              "type": "fill"
            }
          ],
          "hide": false,
          "orderByTime": "ASC",
          "policy": "default",
          "query": "from(bucket: \"lorawanbucket\")\n  |> range(start: v.timeRangeStart, stop: v.timeRangeStop)\n  |> filter(fn: (r) => r[\"_measurement\"] == \"mqtt_consumer\")\n  |> filter(fn: (r) => r[\"topic\"] =~ /${device}/)\n  |> filter(fn: (r) =>  r[\"_field\"] == \"object_humidity\" )\n  |> pivot(rowKey:[\"_time\"], columnKey: [\"_field\"], valueColumn: \"_value\")",
          "refId": "B",
          "resultFormat": "time_series",
          "select": [
            [
              {
                "params": [
                  "value"
                ],
                "type": "field"
              },
              {
                "params": [],
                "type": "mean"
              }
            ]
          ],
          "tags": []
        }
      ],
      "thresholds": [],
      "timeFrom": null,
      "timeRegions": [],
      "timeShift": null,
      "title": "Wetterdaten",
      "tooltip": {
        "shared": true,
        "sort": 0,
        "value_type": "individual"
      },
      "transformations": [],
      "type": "graph",
      "xaxis": {
        "buckets": null,
        "mode": "time",
        "name": null,
        "show": true,
        "values": []
      },
      "yaxes": [
        {
          "$$hashKey": "object:58",
          "decimals": null,
          "format": "none",
          "label": "Temperatur",
          "logBase": 1,
          "max": null,
          "min": null,
          "show": true
        },
        {
          "$$hashKey": "object:59",
          "decimals": null,
          "format": "none",
          "label": "Feuchtigkeit",
          "logBase": 1,
          "max": null,
          "min": null,
          "show": true
        }
      ],
      "yaxis": {
        "align": false,
        "alignLevel": 2
      }
    }
  ],
  "refresh": "5s",
  "schemaVersion": 27,
  "style": "dark",
  "tags": [],
  "templating": {
    "list": [
      {
        "allValue": null,
        "current": {
          "selected": false,
          "text": "036b7539dd631e1b",
          "value": "036b7539dd631e1b"
        },
        "datasource": "lorawanflux",
        "definition": "from(bucket: \"lorawanbucket\")\n  |> range(start: -60m, stop:  now())\n  |> filter(fn: (r) => r[\"_measurement\"] == \"mqtt_consumer\")\n  |> keep(columns: [\"topic\"])\n   |> group()\n",
        "description": null,
        "error": null,
        "hide": 0,
        "includeAll": false,
        "label": null,
        "multi": false,
        "name": "device",
        "options": [],
        "query": "from(bucket: \"lorawanbucket\")\n  |> range(start: -60m, stop:  now())\n  |> filter(fn: (r) => r[\"_measurement\"] == \"mqtt_consumer\")\n  |> keep(columns: [\"topic\"])\n |> group()\n ",
        "refresh": 1,
        "regex": "/.*device/([^]*)(.*)*/event([^]*).*/",
        "skipUrlSync": false,
        "sort": 0,
        "tagValuesQuery": "",
        "tags": [],
        "tagsQuery": "",
        "type": "query",
        "useTags": false
      }
    ]
  },
  "time": {
    "from": "now-60m",
    "to": "now"
  },
  "timepicker": {},
  "timezone": "",
  "title": "WildWeideHüten",
  "uid": "AtuJPgcnz",
  "version": 2
}
